<?xml version="1.0" encoding="UTF-8" standalone="no"?>
<svg
   aria-hidden="true"
   focusable="false"
   data-prefix="fas"
   data-icon="map-marker-alt"
   class="svg-inline--fa fa-map-marker-alt fa-w-12"
   role="img"
   viewBox="0 0 384 512"
   version="1.1"
   id="svg4"
   sodipodi:docname="map-marker-alt-solid-blue.svg"
   inkscape:version="1.1 (ce6663b3b7, 2021-05-25)"
   xmlns:inkscape="http://www.inkscape.org/namespaces/inkscape"
   xmlns:sodipodi="http://sodipodi.sourceforge.net/DTD/sodipodi-0.dtd"
   xmlns="http://www.w3.org/2000/svg"
   xmlns:svg="http://www.w3.org/2000/svg">
  <defs
     id="defs8" />
  <sodipodi:namedview
     id="namedview6"
     pagecolor="#ffffff"
     bordercolor="#666666"
     borderopacity="1.0"
     inkscape:pageshadow="2"
     inkscape:pageopacity="0.0"
     inkscape:pagecheckerboard="0"
     showgrid="false"
     inkscape:zoom="1.6484375"
     inkscape:cx="192.90995"
     inkscape:cy="256.60664"
     inkscape:window-width="1920"
     inkscape:window-height="1043"
     inkscape:window-x="0"
     inkscape:window-y="0"
     inkscape:window-maximized="1"
     inkscape:current-layer="svg4" />
  <path
     fill="currentColor"
     d="M172.268 501.67C26.97 291.031 0 269.413 0 192 0 85.961 85.961 0 192 0s192 85.961 192 192c0 77.413-26.97 99.031-172.268 309.67-9.535 13.774-29.93 13.773-39.464 0zM192 272c44.183 0 80-35.817 80-80s-35.817-80-80-80-80 35.817-80 80 35.817 80 80 80z"
     id="path2" />
  <path
     style="fill:#0065fc;stroke:none;stroke-width:0.606635;fill-opacity:1"
     d="m 186.61171,511.02192 c -3.55159,-0.83378 -9.25102,-4.08676 -11.46486,-6.54365 -1.0826,-1.20144 -8.50083,-11.60244 -16.48497,-23.11334 -7.98413,-11.5109 -29.42771,-42.2218 -47.65238,-68.24645 C 44.030085,317.47259 32.132902,299.35555 18.828589,272.74533 5.1484239,245.38336 0.58603799,225.44319 0.56875635,192.9397 0.5520819,161.5782 6.3115884,136.13836 19.674329,108.55003 48.448926,49.142826 104.45468,9.4363153 170.76777,1.429009 174.59539,0.96682464 183.64884,0.62324595 192,0.62324595 c 8.35116,0 17.40461,0.34357869 21.23223,0.80576305 59.40923,7.1736654 110.46603,39.594321 141.94705,90.135239 4.83125,7.756278 13.24282,24.851372 16.28637,33.099262 5.52532,14.97341 9.21973,30.58078 11.0569,46.7109 1.40089,12.29959 0.94567,39.8351 -0.84921,51.36685 -2.89083,18.57314 -7.49439,32.15971 -17.74382,52.36774 -12.71998,25.07901 -26.24883,45.61684 -90.71095,137.70617 -20.66944,29.52796 -43.4207,62.10127 -50.55835,72.38514 -7.13765,10.28387 -14.05263,19.61818 -15.36663,20.74292 -5.6125,4.80408 -13.54945,6.7531 -20.68188,5.07869 z m 19.08234,-239.92601 c 15.90593,-2.72572 29.92136,-9.83749 41.73684,-21.17827 12.05207,-11.56788 19.74592,-25.37815 23.20835,-41.65843 1.8987,-8.9277 1.90842,-23.6923 0.0214,-32.47679 -3.49906,-16.28875 -10.29306,-28.70625 -22.17862,-40.53623 C 232.73906,119.57688 214.2055,111.92417 192,111.92417 c -22.2055,0 -40.73906,7.65271 -56.482,23.32202 -11.88733,11.83174 -18.68553,24.25819 -22.17637,40.53623 -1.89339,8.82904 -1.89339,23.60612 0,32.43516 3.25806,15.19256 10.13758,28.22525 20.68146,39.17929 12.4391,12.92299 26.54326,20.43921 44.63094,23.78417 6.14448,1.1363 20.17007,1.09215 27.04002,-0.0851 z"
     id="path862" />
  <path
     style="fill:#000000;stroke:none;stroke-width:0.606635"
     d="m 184.72038,510.04468 c -5.01547,-2.03149 -8.72354,-4.93418 -12.00749,-9.39952 C 170.926,498.21544 149.25869,467.291 124.56332,431.92417 45.128669,318.16392 36.323261,304.98983 23.022383,280.00504 13.903102,262.8751 8.1050158,248.30782 4.8962607,234.46445 -0.41144659,211.56569 -0.41438176,177.52307 4.8891444,151.92941 9.6588497,128.91186 21.599275,101.92304 36.007721,81.592417 64.432488,41.484469 106.8213,14.022197 155.29858,4.307908 c 14.01619,-2.8086822 17.54213,-3.0960883 37.61137,-3.0657737 17.99347,0.027179 19.65997,0.1250232 28.54682,1.6760525 49.7794,8.6880312 89.87,32.2437452 120.99367,71.0912922 14.74643,18.406017 29.03059,47.287241 34.80362,70.369671 4.27215,17.0814 5.5328,28.06718 5.53216,48.20937 -5.8e-4,18.37179 -0.58235,26.20832 -2.76026,37.18114 -2.97039,14.96558 -7.00366,26.15796 -15.66587,43.47301 -13.63547,27.25623 -22.95659,41.32397 -109.5619,165.35449 -19.80273,28.36019 -38.56154,55.02456 -41.68623,59.25416 -6.10343,8.26163 -8.99644,10.74639 -14.36998,12.34216 -3.95992,1.17597 -10.93362,1.10196 -14.0216,-0.1488 z m 21.76476,-238.88284 c 31.755,-5.53761 57.71762,-30.87198 64.48545,-62.92501 1.32412,-6.27117 1.50877,-24.7194 0.3108,-31.0533 -1.17028,-6.18757 -4.17631,-15.15218 -6.93165,-20.67168 -3.80074,-7.61362 -7.52055,-12.79465 -14.06323,-19.58748 -11.97234,-12.43011 -22.70107,-18.88144 -38.10716,-22.91438 -5.34124,-1.39821 -7.82273,-1.67155 -17.44949,-1.92209 -15.4346,-0.4017 -24.9517,1.3696 -36.93405,6.87407 -10.28652,4.72543 -23.19239,15.46241 -30.95744,25.7549 -6.43024,8.52321 -12.02383,21.38497 -14.11976,32.46666 -1.20925,6.39355 -1.03127,24.81107 0.30009,31.0533 6.76969,31.7406 31.02422,55.9442 62.76953,62.63773 6.8861,1.45195 23.14561,1.60411 30.69691,0.28728 z"
     id="path859" />
</svg>
