<?xml version="1.0" encoding="UTF-8" standalone="no"?>
<svg
   aria-hidden="true"
   focusable="false"
   data-prefix="fas"
   data-icon="search"
   class="svg-inline--fa fa-search fa-w-16"
   role="img"
   viewBox="0 0 512 512"
   version="1.1"
   id="svg4"
   sodipodi:docname="search-solid3.svg"
   inkscape:version="1.1 (ce6663b3b7, 2021-05-25)"
   xmlns:inkscape="http://www.inkscape.org/namespaces/inkscape"
   xmlns:sodipodi="http://sodipodi.sourceforge.net/DTD/sodipodi-0.dtd"
   xmlns="http://www.w3.org/2000/svg"
   xmlns:svg="http://www.w3.org/2000/svg">
  <defs
     id="defs8" />
  <sodipodi:namedview
     id="namedview6"
     pagecolor="#ffffff"
     bordercolor="#666666"
     borderopacity="1.0"
     inkscape:pageshadow="2"
     inkscape:pageopacity="0.0"
     inkscape:pagecheckerboard="0"
     showgrid="false"
     inkscape:zoom="1.6484375"
     inkscape:cx="256"
     inkscape:cy="256"
     inkscape:window-width="1920"
     inkscape:window-height="1043"
     inkscape:window-x="0"
     inkscape:window-y="0"
     inkscape:window-maximized="1"
     inkscape:current-layer="svg4" />
  <path
     fill="currentColor"
     d="M505 442.7L405.3 343c-4.5-4.5-10.6-7-17-7H372c27.6-35.3 44-79.7 44-128C416 93.1 322.9 0 208 0S0 93.1 0 208s93.1 208 208 208c48.3 0 92.7-16.4 128-44v16.3c0 6.4 2.5 12.5 7 17l99.7 99.7c9.4 9.4 24.6 9.4 33.9 0l28.3-28.3c9.4-9.4 9.4-24.6.1-34zM208 336c-70.7 0-128-57.2-128-128 0-70.7 57.2-128 128-128 70.7 0 128 57.2 128 128 0 70.7-57.2 128-128 128z"
     id="path2" />
  <path
     style="fill:#ffffff;stroke:none;stroke-width:0.606635;fill-opacity:1"
     d="m 453.45972,510.88555 c -6.38916,-2.12982 -7.31894,-2.99078 -59.6253,-55.21188 -28.45648,-28.41009 -52.53962,-52.8948 -53.51809,-54.41047 -3.28995,-5.09618 -3.76631,-7.29387 -4.08924,-18.86564 l -0.29866,-10.70198 -6.62689,4.76762 c -29.18248,20.9949 -61.66698,33.54951 -98.17358,37.94211 -11.98298,1.44183 -34.12128,1.44183 -46.10426,0 -19.73347,-2.3744 -38.05025,-7.04029 -55.50711,-14.13949 C 112.67195,393.4156 92.274466,381.33715 77.345972,369.37278 68.742109,362.47727 53.301272,347.0262 46.495985,338.50237 21.278185,306.91629 5.8173743,269.70555 1.5308687,230.28129 0.42975187,220.15399 0.26651802,197.90838 1.2232601,188.36019 9.4002375,106.75477 63.747798,37.929654 140.87908,11.501672 154.61359,6.7957299 170.46257,3.2473818 185.93365,1.4146291 c 8.82578,-1.04552994 35.61535,-1.03832154 44.28436,0.011915 49.07151,5.9449408 90.70328,26.0111859 124.6857,60.0977119 34.80828,34.914923 55.55118,79.388484 60.00632,128.655834 0.82028,9.07123 0.80938,26.6474 -0.0223,35.9904 -3.30364,37.11122 -16.67734,72.9469 -38.56891,103.34781 -2.44832,3.39999 -4.45149,6.3129 -4.45149,6.47314 0,0.16024 4.982,0.38128 11.07109,0.49119 l 11.07109,0.19983 4.24645,1.99866 c 4.04516,1.90391 6.73739,4.49185 56.79739,54.59716 60.24496,60.29947 56.03673,55.32442 56.03673,66.24779 0,10.19817 -0.0782,10.31563 -20.50551,30.8178 -19.77567,19.84811 -20.99171,20.71054 -29.78066,21.12094 -3.08204,0.14391 -5.82337,-0.0723 -7.34416,-0.57926 z M 219.6019,335.73853 c 54.07067,-4.93299 99.07612,-43.13251 112.52807,-95.51104 3.13637,-12.21222 4.16433,-22.03589 3.77702,-36.09479 -0.43063,-15.6316 -2.59757,-27.37444 -7.478,-40.52392 -18.77023,-50.57321 -66.67716,-83.836268 -120.74466,-83.836268 -58.0833,0 -109.028803,39.320888 -123.649085,95.435158 -3.012974,11.56414 -4.047287,19.64658 -4.08969,31.95821 -0.04034,11.71006 0.665945,18.66383 2.948173,29.02644 13.761899,62.48694 72.678252,105.38782 136.708172,99.54621 z"
     id="path862" />
</svg>
